{
    "tests": [
        {
            "question": "Когда",
            "availableAnswers": [
                {
                    "id": 1,
                    "label": "1980х"
                },
                {
                    "id": 2,
                    "label": "1990х"
                },
                {
                    "id": 3,
                    "label": "2000х"
                }
            ],
            "correctAnswer": 2
        }
    ]
}