{
    "tests": [
        {
            "question": "STEP - это:",
            "availableAnswers": [
                {
                    "id": 1,
                    "label": "Стандарт для обмена данными об изделии"
                },
                {
                    "id": 2,
                    "label": "Стандарт обмена электронной документацией"
                },
                {
                    "id": 3,
                    "label": "Стандарт представления графического материала"
                }
            ],
            "correctAnswer": 1
        },
        {
            "question": "Что такое IGES:",
            "availableAnswers": [
                {
                    "id": 1,
                    "label": "Стандарт представления информации"
                },
                {
                    "id": 2,
                    "label": "Этап развития STEP формата"
                },
                {
                    "id": 3,
                    "label": "Геоинформационный стандарт"
                }
            ],
            "correctAnswer": 2
        },
        {
            "question": "Сколько компонент в стандарте STEP?",
            "availableAnswers": [
                {
                    "id": 1,
                    "label": "Семь"
                },
                {
                    "id": 2,
                    "label": "Пять"
                },
                {
                    "id": 3,
                    "label": "Три"
                }
            ],
            "correctAnswer": 1
        },
        {
            "question": "Что находится на первом уровне стандарта STEP?",
            "availableAnswers": [
                {
                    "id": 1,
                    "label": "Трёхкомпонентная декомпозиция информации"
                },
                {
                    "id": 2,
                    "label": "Ядро, с помощью которого реализуется информационный обмен"
                },
                {
                    "id": 3,
                    "label": "Название STEP файла"
                }
            ],
            "correctAnswer": 2
        },
        {
            "question": "Что находится на втором уровне стандарта STEP?",
            "availableAnswers": [
                {
                    "id": 1,
                    "label": "Базовое представление информации о файле"
                },
                {
                    "id": 2,
                    "label": "Базовое представление информации об изделии"
                },
                {
                    "id": 3,
                    "label": "Информационный слой"
                }
            ],
            "correctAnswer": 2
        },
        {
            "question": "Какое название носит язык описания стандарта STEP?",
            "availableAnswers": [
                {
                    "id": 1,
                    "label": "EXPRESS"
                },
                {
                    "id": 2,
                    "label": "INRPRESS"
                },
                {
                    "id": 3,
                    "label": "STEPLANG"
                }
            ],
            "correctAnswer": 1
        },
        {
            "question": "Является ли язык описания STEP формата языком программирования?",
            "availableAnswers": [
                {
                    "id": 1,
                    "label": "Да"
                },
                {
                    "id": 2,
                    "label": "Нет"
                },
                {
                    "id": 3,
                    "label": "Необходим расширенный синтаксис"
                }
            ],
            "correctAnswer": 2
        },
        {
            "question": "Какие методы реализации регламентированы в STEP формате?",
            "availableAnswers": [
                {
                    "id": 1,
                    "label": "Обменный файл, системный блок"
                },
                {
                    "id": 2,
                    "label": "Обменный блок данных, программный интерфейс"
                },
                {
                    "id": 3,
                    "label": "Обменный файл, программный интерфейс"
                }
            ],
            "correctAnswer": 3
        },
        {
            "question": "Что такое 'Методология тестирования' применительно к стандарту STEP?",
            "availableAnswers": [
                {
                    "id": 1,
                    "label": "Набор методов проверки обменного файла на соответствие структуре STEP"
                },
                {
                    "id": 2,
                    "label": "Набор методов проверки программного продукта на соответствие структуре STEP"
                },
                {
                    "id": 3,
                    "label": "Набор методов проверки программного продукта на соответствие протоколу применения STEP"
                }
            ],
            "correctAnswer": 3
        },
        {
            "question": "Что такое 'Интегрированные ресурсы' применительно к стандарту STEP?",
            "availableAnswers": [
                {
                    "id": 1,
                    "label": "Базовое представление информации об изделии"
                },
                {
                    "id": 2,
                    "label": "Несколько программных комплексов, работающих с помощью STEP обмена"
                },
                {
                    "id": 3,
                    "label": "Системные ресурсы, задействованные в реализации STEP протокола"
                }
            ],
            "correctAnswer": 1
        },
        {
            "question": "Методология тестирования зависит от:",
            "availableAnswers": [
                {
                    "id": 1,
                    "label": "Метода реализации, используемого в программном продукте"
                },
                {
                    "id": 2,
                    "label": "Программного продукта"
                },
                {
                    "id": 3,
                    "label": "Протокола применения"
                }
            ],
            "correctAnswer": 1
        }
    ]
}